%YAML 1.1
%TAG !u! tag:unity3d.com,2011:
--- !u!1001 &1374512855295838415
PrefabInstance:
  m_ObjectHideFlags: 0
  serializedVersion: 2
  m_Modification:
    m_TransformParent: {fileID: 7910286758567006254}
    m_Modifications:
    - target: {fileID: 1000010304998954, guid: 6def53d002137b747aec0b29551e0e25, type: 3}
      propertyPath: m_Name
      value: vr_glove_right_model_slim
      objectReference: {fileID: 0}
    - target: {fileID: 4000012125075130, guid: 6def53d002137b747aec0b29551e0e25, type: 3}
      propertyPath: m_LocalPosition.x
      value: -0.33813336
      objectReference: {fileID: 0}
    - target: {fileID: 4000012125075130, guid: 6def53d002137b747aec0b29551e0e25, type: 3}
      propertyPath: m_LocalPosition.y
      value: 0
      objectReference: {fileID: 0}
    - target: {fileID: 4000012125075130, guid: 6def53d002137b747aec0b29551e0e25, type: 3}
      propertyPath: m_LocalPosition.z
      value: -0.35077143
      objectReference: {fileID: 0}
    - target: {fileID: 4000012125075130, guid: 6def53d002137b747aec0b29551e0e25, type: 3}
      propertyPath: m_LocalRotation.x
      value: 0
      objectReference: {fileID: 0}
    - target: {fileID: 4000012125075130, guid: 6def53d002137b747aec0b29551e0e25, type: 3}
      propertyPath: m_LocalRotation.y
      value: 0
      objectReference: {fileID: 0}
    - target: {fileID: 4000012125075130, guid: 6def53d002137b747aec0b29551e0e25, type: 3}
      propertyPath: m_LocalRotation.z
      value: 0
      objectReference: {fileID: 0}
    - target: {fileID: 4000012125075130, guid: 6def53d002137b747aec0b29551e0e25, type: 3}
      propertyPath: m_LocalRotation.w
      value: 1
      objectReference: {fileID: 0}
    - target: {fileID: 4000012125075130, guid: 6def53d002137b747aec0b29551e0e25, type: 3}
      propertyPath: m_RootOrder
      value: 1
      objectReference: {fileID: 0}
    - target: {fileID: 4000012125075130, guid: 6def53d002137b747aec0b29551e0e25, type: 3}
      propertyPath: m_LocalEulerAnglesHint.x
      value: 0
      objectReference: {fileID: 0}
    - target: {fileID: 4000012125075130, guid: 6def53d002137b747aec0b29551e0e25, type: 3}
      propertyPath: m_LocalEulerAnglesHint.y
      value: 0
      objectReference: {fileID: 0}
    - target: {fileID: 4000012125075130, guid: 6def53d002137b747aec0b29551e0e25, type: 3}
      propertyPath: m_LocalEulerAnglesHint.z
      value: 0
      objectReference: {fileID: 0}
    - target: {fileID: 114000012051789102, guid: 6def53d002137b747aec0b29551e0e25,
        type: 3}
      propertyPath: origin
      value: 
      objectReference: {fileID: 7910286758566991872}
    m_RemovedComponents: []
  m_SourcePrefab: {fileID: 100100000, guid: 6def53d002137b747aec0b29551e0e25, type: 3}
--- !u!1001 &4012811879047314112
PrefabInstance:
  m_ObjectHideFlags: 0
  serializedVersion: 2
  m_Modification:
    m_TransformParent: {fileID: 7910286758567081202}
    m_Modifications:
    - target: {fileID: 1000013348574242, guid: 638779290bce1af49b356f33dcc6fccf, type: 3}
      propertyPath: m_Name
      value: vr_glove_left_model_slim
      objectReference: {fileID: 0}
    - target: {fileID: 4000013303659494, guid: 638779290bce1af49b356f33dcc6fccf, type: 3}
      propertyPath: m_LocalPosition.x
      value: -0.5110508
      objectReference: {fileID: 0}
    - target: {fileID: 4000013303659494, guid: 638779290bce1af49b356f33dcc6fccf, type: 3}
      propertyPath: m_LocalPosition.y
      value: 0
      objectReference: {fileID: 0}
    - target: {fileID: 4000013303659494, guid: 638779290bce1af49b356f33dcc6fccf, type: 3}
      propertyPath: m_LocalPosition.z
      value: -0.3726282
      objectReference: {fileID: 0}
    - target: {fileID: 4000013303659494, guid: 638779290bce1af49b356f33dcc6fccf, type: 3}
      propertyPath: m_LocalRotation.x
      value: 0
      objectReference: {fileID: 0}
    - target: {fileID: 4000013303659494, guid: 638779290bce1af49b356f33dcc6fccf, type: 3}
      propertyPath: m_LocalRotation.y
      value: 0
      objectReference: {fileID: 0}
    - target: {fileID: 4000013303659494, guid: 638779290bce1af49b356f33dcc6fccf, type: 3}
      propertyPath: m_LocalRotation.z
      value: 0
      objectReference: {fileID: 0}
    - target: {fileID: 4000013303659494, guid: 638779290bce1af49b356f33dcc6fccf, type: 3}
      propertyPath: m_LocalRotation.w
      value: 1
      objectReference: {fileID: 0}
    - target: {fileID: 4000013303659494, guid: 638779290bce1af49b356f33dcc6fccf, type: 3}
      propertyPath: m_RootOrder
      value: 1
      objectReference: {fileID: 0}
    - target: {fileID: 4000013303659494, guid: 638779290bce1af49b356f33dcc6fccf, type: 3}
      propertyPath: m_LocalEulerAnglesHint.x
      value: 0
      objectReference: {fileID: 0}
    - target: {fileID: 4000013303659494, guid: 638779290bce1af49b356f33dcc6fccf, type: 3}
      propertyPath: m_LocalEulerAnglesHint.y
      value: 0
      objectReference: {fileID: 0}
    - target: {fileID: 4000013303659494, guid: 638779290bce1af49b356f33dcc6fccf, type: 3}
      propertyPath: m_LocalEulerAnglesHint.z
      value: 0
      objectReference: {fileID: 0}
    - target: {fileID: 114000013038800862, guid: 638779290bce1af49b356f33dcc6fccf,
        type: 3}
      propertyPath: origin
      value: 
      objectReference: {fileID: 7910286758566991872}
    m_RemovedComponents: []
  m_SourcePrefab: {fileID: 100100000, guid: 638779290bce1af49b356f33dcc6fccf, type: 3}
--- !u!1001 &7910286758566884396
PrefabInstance:
  m_ObjectHideFlags: 0
  serializedVersion: 2
  m_Modification:
    m_TransformParent: {fileID: 0}
    m_Modifications:
    - target: {fileID: 146900, guid: 4d293c8e162f3874b982baadd71153d2, type: 3}
      propertyPath: m_Name
      value: CameraRigWithHands
      objectReference: {fileID: 0}
    - target: {fileID: 420908, guid: 4d293c8e162f3874b982baadd71153d2, type: 3}
      propertyPath: m_LocalPosition.x
      value: 0
      objectReference: {fileID: 0}
    - target: {fileID: 420908, guid: 4d293c8e162f3874b982baadd71153d2, type: 3}
      propertyPath: m_LocalPosition.y
      value: 0
      objectReference: {fileID: 0}
    - target: {fileID: 420908, guid: 4d293c8e162f3874b982baadd71153d2, type: 3}
      propertyPath: m_LocalPosition.z
      value: 0
      objectReference: {fileID: 0}
    - target: {fileID: 420908, guid: 4d293c8e162f3874b982baadd71153d2, type: 3}
      propertyPath: m_LocalRotation.x
      value: 0
      objectReference: {fileID: 0}
    - target: {fileID: 420908, guid: 4d293c8e162f3874b982baadd71153d2, type: 3}
      propertyPath: m_LocalRotation.y
      value: 0
      objectReference: {fileID: 0}
    - target: {fileID: 420908, guid: 4d293c8e162f3874b982baadd71153d2, type: 3}
      propertyPath: m_LocalRotation.z
      value: 0
      objectReference: {fileID: 0}
    - target: {fileID: 420908, guid: 4d293c8e162f3874b982baadd71153d2, type: 3}
      propertyPath: m_LocalRotation.w
      value: 1
      objectReference: {fileID: 0}
    - target: {fileID: 420908, guid: 4d293c8e162f3874b982baadd71153d2, type: 3}
      propertyPath: m_RootOrder
      value: 0
      objectReference: {fileID: 0}
    - target: {fileID: 420908, guid: 4d293c8e162f3874b982baadd71153d2, type: 3}
      propertyPath: m_LocalEulerAnglesHint.x
      value: 0
      objectReference: {fileID: 0}
    - target: {fileID: 420908, guid: 4d293c8e162f3874b982baadd71153d2, type: 3}
      propertyPath: m_LocalEulerAnglesHint.y
      value: 0
      objectReference: {fileID: 0}
    - target: {fileID: 420908, guid: 4d293c8e162f3874b982baadd71153d2, type: 3}
      propertyPath: m_LocalEulerAnglesHint.z
      value: 0
      objectReference: {fileID: 0}
    - target: {fileID: 2348914, guid: 4d293c8e162f3874b982baadd71153d2, type: 3}
      propertyPath: m_Materials.Array.data[0]
      value: 
      objectReference: {fileID: 0}
    - target: {fileID: 3380982, guid: 4d293c8e162f3874b982baadd71153d2, type: 3}
      propertyPath: m_Mesh
      value: 
      objectReference: {fileID: 0}
    m_RemovedComponents: []
  m_SourcePrefab: {fileID: 100100000, guid: 4d293c8e162f3874b982baadd71153d2, type: 3}
--- !u!4 &7910286758566991872 stripped
Transform:
  m_CorrespondingSourceObject: {fileID: 420908, guid: 4d293c8e162f3874b982baadd71153d2,
    type: 3}
  m_PrefabInstance: {fileID: 7910286758566884396}
  m_PrefabAsset: {fileID: 0}
--- !u!4 &7910286758567081202 stripped
Transform:
  m_CorrespondingSourceObject: {fileID: 458974, guid: 4d293c8e162f3874b982baadd71153d2,
    type: 3}
  m_PrefabInstance: {fileID: 7910286758566884396}
  m_PrefabAsset: {fileID: 0}
--- !u!4 &7910286758567006254 stripped
Transform:
  m_CorrespondingSourceObject: {fileID: 402434, guid: 4d293c8e162f3874b982baadd71153d2,
    type: 3}
  m_PrefabInstance: {fileID: 7910286758566884396}
  m_PrefabAsset: {fileID: 0}
